Exploratory Analysis of Seattle Collisions
…
Observations:  There appears to be a 10-is year trend: 5 years down, 5 years up, then going back down.

The first peak, at year 2005, was higher than the second peak 10 years later, at year 2015.

I had expected to see a steady increase in Seattle collisions, mirroring population growth. Perhaps Im wrong about the steady increase in population, or wrong that the number of reported collisions have a strong correlation with the population. #TODO: import population data and compare rate changes with collision rates by year.

2. Collision count by hour

 df %>% 
    filter(!is.na(hour)) %>%
    count(hour)

# A tibble: 24 x 2
    hour     n
   <int> <int>
 1     0  3720
 2     1  3322
 3     2  3491
 4     3  1582
 5     4  1141
 6     5  1561
 7     6  3043
 8     7  6126
 9     8  7999
10     9  7532
#  with 14 more rows
…
